EESchema Schematic File Version 4
EELAYER 30 0
EELAYER END
$Descr A4 11693 8268
encoding utf-8
Sheet 1 1
Title ""
Date ""
Rev ""
Comp ""
Comment1 ""
Comment2 ""
Comment3 ""
Comment4 ""
$EndDescr
$Comp
L Connector:Barrel_Jack_Switch Input1
U 1 1 5FB7C8E7
P 4500 2400
F 0 "Input1" V 4603 2212 50  0000 R CNN
F 1 "Barrel_Jack_Switch" V 4512 2212 50  0000 R CNN
F 2 "Connector_BarrelJack:BarrelJack_Horizontal" H 4550 2360 50  0001 C CNN
F 3 "~" H 4550 2360 50  0001 C CNN
	1    4500 2400
	0    1    1    0   
$EndComp
$Comp
L Connector:Barrel_Jack_Switch Output1
U 1 1 5FB80055
P 2550 3850
F 0 "Output1" V 2200 3750 50  0000 L CNN
F 1 "Barrel_Jack_Switch" V 2300 3500 50  0000 L CNN
F 2 "Connector_BarrelJack:BarrelJack_Horizontal" H 2600 3810 50  0001 C CNN
F 3 "~" H 2600 3810 50  0001 C CNN
	1    2550 3850
	0    -1   -1   0   
$EndComp
$Comp
L Device:Polyfuse F1
U 1 1 5FB84E69
P 2450 3400
F 0 "F1" H 2250 3450 50  0000 L CNN
F 1 "Polyfuse_2A" H 1900 3350 50  0000 L CNN
F 2 "Fuse:Fuse_Bourns_MF-RHT200" H 2500 3200 50  0001 L CNN
F 3 "~" H 2450 3400 50  0001 C CNN
	1    2450 3400
	1    0    0    -1  
$EndComp
$Comp
L power:GND #PWR0102
U 1 1 5FB8896A
P 4450 2800
F 0 "#PWR0102" H 4450 2550 50  0001 C CNN
F 1 "GND" H 4455 2627 50  0000 C CNN
F 2 "" H 4450 2800 50  0001 C CNN
F 3 "" H 4450 2800 50  0001 C CNN
	1    4450 2800
	1    0    0    -1  
$EndComp
Wire Wire Line
	4400 2700 4400 2800
Wire Wire Line
	4400 2800 4450 2800
Wire Wire Line
	4500 2700 4500 2800
Wire Wire Line
	4500 2800 4450 2800
Connection ~ 4450 2800
$Comp
L power:+12V #PWR0103
U 1 1 5FB89621
P 2450 3250
F 0 "#PWR0103" H 2450 3100 50  0001 C CNN
F 1 "+12V" H 2465 3423 50  0000 C CNN
F 2 "" H 2450 3250 50  0001 C CNN
F 3 "" H 2450 3250 50  0001 C CNN
	1    2450 3250
	1    0    0    -1  
$EndComp
$Comp
L power:GND #PWR0104
U 1 1 5FB8CC0A
P 2800 3550
F 0 "#PWR0104" H 2800 3300 50  0001 C CNN
F 1 "GND" H 2805 3377 50  0000 C CNN
F 2 "" H 2800 3550 50  0001 C CNN
F 3 "" H 2800 3550 50  0001 C CNN
	1    2800 3550
	1    0    0    -1  
$EndComp
Wire Wire Line
	2550 3550 2650 3550
Connection ~ 2650 3550
Wire Wire Line
	2650 3550 2800 3550
$Comp
L Connector:Barrel_Jack_Switch Output2
U 1 1 5FB90321
P 3350 3850
F 0 "Output2" V 3000 3750 50  0000 L CNN
F 1 "Barrel_Jack_Switch" V 3100 3500 50  0000 L CNN
F 2 "Connector_BarrelJack:BarrelJack_Horizontal" H 3400 3810 50  0001 C CNN
F 3 "~" H 3400 3810 50  0001 C CNN
	1    3350 3850
	0    -1   -1   0   
$EndComp
$Comp
L Device:Polyfuse F2
U 1 1 5FB90327
P 3250 3400
F 0 "F2" H 3050 3450 50  0000 L CNN
F 1 "Polyfuse_2A" H 2700 3350 50  0000 L CNN
F 2 "Fuse:Fuse_Bourns_MF-RHT200" H 3300 3200 50  0001 L CNN
F 3 "~" H 3250 3400 50  0001 C CNN
	1    3250 3400
	1    0    0    -1  
$EndComp
$Comp
L power:+12V #PWR0105
U 1 1 5FB9032D
P 3250 3250
F 0 "#PWR0105" H 3250 3100 50  0001 C CNN
F 1 "+12V" H 3265 3423 50  0000 C CNN
F 2 "" H 3250 3250 50  0001 C CNN
F 3 "" H 3250 3250 50  0001 C CNN
	1    3250 3250
	1    0    0    -1  
$EndComp
$Comp
L power:GND #PWR0106
U 1 1 5FB90333
P 3600 3550
F 0 "#PWR0106" H 3600 3300 50  0001 C CNN
F 1 "GND" H 3605 3377 50  0000 C CNN
F 2 "" H 3600 3550 50  0001 C CNN
F 3 "" H 3600 3550 50  0001 C CNN
	1    3600 3550
	1    0    0    -1  
$EndComp
Wire Wire Line
	3350 3550 3450 3550
Connection ~ 3450 3550
Wire Wire Line
	3450 3550 3600 3550
$Comp
L Connector:Barrel_Jack_Switch Output3
U 1 1 5FB90BE4
P 4150 3850
F 0 "Output3" V 3800 3750 50  0000 L CNN
F 1 "Barrel_Jack_Switch" V 3900 3500 50  0000 L CNN
F 2 "Connector_BarrelJack:BarrelJack_Horizontal" H 4200 3810 50  0001 C CNN
F 3 "~" H 4200 3810 50  0001 C CNN
	1    4150 3850
	0    -1   -1   0   
$EndComp
$Comp
L Device:Polyfuse F3
U 1 1 5FB90BEA
P 4050 3400
F 0 "F3" H 3850 3450 50  0000 L CNN
F 1 "Polyfuse_2A" H 3500 3350 50  0000 L CNN
F 2 "Fuse:Fuse_Bourns_MF-RHT200" H 4100 3200 50  0001 L CNN
F 3 "~" H 4050 3400 50  0001 C CNN
	1    4050 3400
	1    0    0    -1  
$EndComp
$Comp
L power:+12V #PWR0107
U 1 1 5FB90BF0
P 4050 3250
F 0 "#PWR0107" H 4050 3100 50  0001 C CNN
F 1 "+12V" H 4065 3423 50  0000 C CNN
F 2 "" H 4050 3250 50  0001 C CNN
F 3 "" H 4050 3250 50  0001 C CNN
	1    4050 3250
	1    0    0    -1  
$EndComp
$Comp
L power:GND #PWR0108
U 1 1 5FB90BF6
P 4400 3550
F 0 "#PWR0108" H 4400 3300 50  0001 C CNN
F 1 "GND" H 4405 3377 50  0000 C CNN
F 2 "" H 4400 3550 50  0001 C CNN
F 3 "" H 4400 3550 50  0001 C CNN
	1    4400 3550
	1    0    0    -1  
$EndComp
Wire Wire Line
	4150 3550 4250 3550
Connection ~ 4250 3550
Wire Wire Line
	4250 3550 4400 3550
$Comp
L Connector:Barrel_Jack_Switch Output4
U 1 1 5FB919FD
P 4950 3850
F 0 "Output4" V 4600 3750 50  0000 L CNN
F 1 "Barrel_Jack_Switch" V 4700 3500 50  0000 L CNN
F 2 "Connector_BarrelJack:BarrelJack_Horizontal" H 5000 3810 50  0001 C CNN
F 3 "~" H 5000 3810 50  0001 C CNN
	1    4950 3850
	0    -1   -1   0   
$EndComp
$Comp
L Device:Polyfuse F4
U 1 1 5FB91A03
P 4850 3400
F 0 "F4" H 4650 3450 50  0000 L CNN
F 1 "Polyfuse_2A" H 4300 3350 50  0000 L CNN
F 2 "Fuse:Fuse_Bourns_MF-RHT200" H 4900 3200 50  0001 L CNN
F 3 "~" H 4850 3400 50  0001 C CNN
	1    4850 3400
	1    0    0    -1  
$EndComp
$Comp
L power:+12V #PWR0109
U 1 1 5FB91A09
P 4850 3250
F 0 "#PWR0109" H 4850 3100 50  0001 C CNN
F 1 "+12V" H 4865 3423 50  0000 C CNN
F 2 "" H 4850 3250 50  0001 C CNN
F 3 "" H 4850 3250 50  0001 C CNN
	1    4850 3250
	1    0    0    -1  
$EndComp
$Comp
L power:GND #PWR0110
U 1 1 5FB91A0F
P 5200 3550
F 0 "#PWR0110" H 5200 3300 50  0001 C CNN
F 1 "GND" H 5205 3377 50  0000 C CNN
F 2 "" H 5200 3550 50  0001 C CNN
F 3 "" H 5200 3550 50  0001 C CNN
	1    5200 3550
	1    0    0    -1  
$EndComp
Wire Wire Line
	4950 3550 5050 3550
Connection ~ 5050 3550
Wire Wire Line
	5050 3550 5200 3550
$Comp
L Connector:Barrel_Jack_Switch Output5
U 1 1 5FB93563
P 5700 3850
F 0 "Output5" V 5350 3750 50  0000 L CNN
F 1 "Barrel_Jack_Switch" V 5450 3500 50  0000 L CNN
F 2 "Connector_BarrelJack:BarrelJack_Horizontal" H 5750 3810 50  0001 C CNN
F 3 "~" H 5750 3810 50  0001 C CNN
	1    5700 3850
	0    -1   -1   0   
$EndComp
$Comp
L Device:Polyfuse F5
U 1 1 5FB93569
P 5600 3400
F 0 "F5" H 5400 3450 50  0000 L CNN
F 1 "Polyfuse_2A" H 5050 3350 50  0000 L CNN
F 2 "Fuse:Fuse_Bourns_MF-RHT200" H 5650 3200 50  0001 L CNN
F 3 "~" H 5600 3400 50  0001 C CNN
	1    5600 3400
	1    0    0    -1  
$EndComp
$Comp
L power:+12V #PWR0111
U 1 1 5FB9356F
P 5600 3250
F 0 "#PWR0111" H 5600 3100 50  0001 C CNN
F 1 "+12V" H 5615 3423 50  0000 C CNN
F 2 "" H 5600 3250 50  0001 C CNN
F 3 "" H 5600 3250 50  0001 C CNN
	1    5600 3250
	1    0    0    -1  
$EndComp
$Comp
L power:GND #PWR0112
U 1 1 5FB93575
P 5950 3550
F 0 "#PWR0112" H 5950 3300 50  0001 C CNN
F 1 "GND" H 5955 3377 50  0000 C CNN
F 2 "" H 5950 3550 50  0001 C CNN
F 3 "" H 5950 3550 50  0001 C CNN
	1    5950 3550
	1    0    0    -1  
$EndComp
Wire Wire Line
	5700 3550 5800 3550
Connection ~ 5800 3550
Wire Wire Line
	5800 3550 5950 3550
$Comp
L Connector:Barrel_Jack_Switch Output6
U 1 1 5FB94CD3
P 6500 3850
F 0 "Output6" V 6150 3750 50  0000 L CNN
F 1 "Barrel_Jack_Switch" V 6250 3500 50  0000 L CNN
F 2 "Connector_BarrelJack:BarrelJack_Horizontal" H 6550 3810 50  0001 C CNN
F 3 "~" H 6550 3810 50  0001 C CNN
	1    6500 3850
	0    -1   -1   0   
$EndComp
$Comp
L Device:Polyfuse F6
U 1 1 5FB94CD9
P 6400 3400
F 0 "F6" H 6200 3450 50  0000 L CNN
F 1 "Polyfuse_2A" H 5850 3350 50  0000 L CNN
F 2 "Fuse:Fuse_Bourns_MF-RHT200" H 6450 3200 50  0001 L CNN
F 3 "~" H 6400 3400 50  0001 C CNN
	1    6400 3400
	1    0    0    -1  
$EndComp
$Comp
L power:+12V #PWR0113
U 1 1 5FB94CDF
P 6400 3250
F 0 "#PWR0113" H 6400 3100 50  0001 C CNN
F 1 "+12V" H 6415 3423 50  0000 C CNN
F 2 "" H 6400 3250 50  0001 C CNN
F 3 "" H 6400 3250 50  0001 C CNN
	1    6400 3250
	1    0    0    -1  
$EndComp
$Comp
L power:GND #PWR0114
U 1 1 5FB94CE5
P 6750 3550
F 0 "#PWR0114" H 6750 3300 50  0001 C CNN
F 1 "GND" H 6755 3377 50  0000 C CNN
F 2 "" H 6750 3550 50  0001 C CNN
F 3 "" H 6750 3550 50  0001 C CNN
	1    6750 3550
	1    0    0    -1  
$EndComp
Wire Wire Line
	6500 3550 6600 3550
Connection ~ 6600 3550
Wire Wire Line
	6600 3550 6750 3550
$Comp
L Device:Polyfuse F7
U 1 1 5FBA0999
P 5250 2550
F 0 "F7" H 5050 2600 50  0000 L CNN
F 1 "Polyfuse_2A" H 4700 2500 50  0000 L CNN
F 2 "Fuse:Fuse_Bourns_MF-RHT200" H 5300 2350 50  0001 L CNN
F 3 "~" H 5250 2550 50  0001 C CNN
	1    5250 2550
	1    0    0    -1  
$EndComp
Wire Wire Line
	4600 2700 5250 2700
Connection ~ 5250 2700
Wire Wire Line
	5250 2700 5400 2700
$Comp
L Connector:Barrel_Jack_Switch Output7
U 1 1 5FBC4314
P 7300 3850
F 0 "Output7" V 6950 3750 50  0000 L CNN
F 1 "Barrel_Jack_Switch" V 7050 3500 50  0000 L CNN
F 2 "Connector_BarrelJack:BarrelJack_Horizontal" H 7350 3810 50  0001 C CNN
F 3 "~" H 7350 3810 50  0001 C CNN
	1    7300 3850
	0    -1   -1   0   
$EndComp
$Comp
L Device:Polyfuse F9
U 1 1 5FBC431A
P 7200 3400
F 0 "F9" H 7000 3450 50  0000 L CNN
F 1 "Polyfuse_2A" H 6650 3350 50  0000 L CNN
F 2 "Fuse:Fuse_Bourns_MF-RHT200" H 7250 3200 50  0001 L CNN
F 3 "~" H 7200 3400 50  0001 C CNN
	1    7200 3400
	1    0    0    -1  
$EndComp
$Comp
L power:+12V #PWR0115
U 1 1 5FBC4320
P 7200 3250
F 0 "#PWR0115" H 7200 3100 50  0001 C CNN
F 1 "+12V" H 7215 3423 50  0000 C CNN
F 2 "" H 7200 3250 50  0001 C CNN
F 3 "" H 7200 3250 50  0001 C CNN
	1    7200 3250
	1    0    0    -1  
$EndComp
$Comp
L power:GND #PWR0116
U 1 1 5FBC4326
P 7550 3550
F 0 "#PWR0116" H 7550 3300 50  0001 C CNN
F 1 "GND" H 7555 3377 50  0000 C CNN
F 2 "" H 7550 3550 50  0001 C CNN
F 3 "" H 7550 3550 50  0001 C CNN
	1    7550 3550
	1    0    0    -1  
$EndComp
Wire Wire Line
	7300 3550 7400 3550
Connection ~ 7400 3550
Wire Wire Line
	7400 3550 7550 3550
$Comp
L Connector:Barrel_Jack_Switch Output8
U 1 1 5FBC432F
P 8100 3850
F 0 "Output8" V 7750 3750 50  0000 L CNN
F 1 "Barrel_Jack_Switch" V 7850 3500 50  0000 L CNN
F 2 "Connector_BarrelJack:BarrelJack_Horizontal" H 8150 3810 50  0001 C CNN
F 3 "~" H 8150 3810 50  0001 C CNN
	1    8100 3850
	0    -1   -1   0   
$EndComp
$Comp
L Device:Polyfuse F10
U 1 1 5FBC4335
P 8000 3400
F 0 "F10" H 7800 3450 50  0000 L CNN
F 1 "Polyfuse_2A" H 7450 3350 50  0000 L CNN
F 2 "Fuse:Fuse_Bourns_MF-RHT200" H 8050 3200 50  0001 L CNN
F 3 "~" H 8000 3400 50  0001 C CNN
	1    8000 3400
	1    0    0    -1  
$EndComp
$Comp
L power:+12V #PWR0117
U 1 1 5FBC433B
P 8000 3250
F 0 "#PWR0117" H 8000 3100 50  0001 C CNN
F 1 "+12V" H 8015 3423 50  0000 C CNN
F 2 "" H 8000 3250 50  0001 C CNN
F 3 "" H 8000 3250 50  0001 C CNN
	1    8000 3250
	1    0    0    -1  
$EndComp
$Comp
L power:GND #PWR0118
U 1 1 5FBC4341
P 8350 3550
F 0 "#PWR0118" H 8350 3300 50  0001 C CNN
F 1 "GND" H 8355 3377 50  0000 C CNN
F 2 "" H 8350 3550 50  0001 C CNN
F 3 "" H 8350 3550 50  0001 C CNN
	1    8350 3550
	1    0    0    -1  
$EndComp
Wire Wire Line
	8100 3550 8200 3550
Connection ~ 8200 3550
Wire Wire Line
	8200 3550 8350 3550
$Comp
L Connector:Barrel_Jack_Switch Output9
U 1 1 5FBC434A
P 8850 3850
F 0 "Output9" V 8500 3750 50  0000 L CNN
F 1 "Barrel_Jack_Switch" V 8600 3500 50  0000 L CNN
F 2 "Connector_BarrelJack:BarrelJack_Horizontal" H 8900 3810 50  0001 C CNN
F 3 "~" H 8900 3810 50  0001 C CNN
	1    8850 3850
	0    -1   -1   0   
$EndComp
$Comp
L Device:Polyfuse F11
U 1 1 5FBC4350
P 8750 3400
F 0 "F11" H 8550 3450 50  0000 L CNN
F 1 "Polyfuse_2A" H 8200 3350 50  0000 L CNN
F 2 "Fuse:Fuse_Bourns_MF-RHT200" H 8800 3200 50  0001 L CNN
F 3 "~" H 8750 3400 50  0001 C CNN
	1    8750 3400
	1    0    0    -1  
$EndComp
$Comp
L power:+12V #PWR0119
U 1 1 5FBC4356
P 8750 3250
F 0 "#PWR0119" H 8750 3100 50  0001 C CNN
F 1 "+12V" H 8765 3423 50  0000 C CNN
F 2 "" H 8750 3250 50  0001 C CNN
F 3 "" H 8750 3250 50  0001 C CNN
	1    8750 3250
	1    0    0    -1  
$EndComp
$Comp
L power:GND #PWR0120
U 1 1 5FBC435C
P 9100 3550
F 0 "#PWR0120" H 9100 3300 50  0001 C CNN
F 1 "GND" H 9105 3377 50  0000 C CNN
F 2 "" H 9100 3550 50  0001 C CNN
F 3 "" H 9100 3550 50  0001 C CNN
	1    9100 3550
	1    0    0    -1  
$EndComp
Wire Wire Line
	8850 3550 8950 3550
Connection ~ 8950 3550
Wire Wire Line
	8950 3550 9100 3550
$Comp
L Connector:Barrel_Jack_Switch Output10
U 1 1 5FBC4365
P 9650 3850
F 0 "Output10" V 9300 3750 50  0000 L CNN
F 1 "Barrel_Jack_Switch" V 9400 3500 50  0000 L CNN
F 2 "Connector_BarrelJack:BarrelJack_Horizontal" H 9700 3810 50  0001 C CNN
F 3 "~" H 9700 3810 50  0001 C CNN
	1    9650 3850
	0    -1   -1   0   
$EndComp
$Comp
L Device:Polyfuse F12
U 1 1 5FBC436B
P 9550 3400
F 0 "F12" H 9350 3450 50  0000 L CNN
F 1 "Polyfuse_2A" H 9000 3350 50  0000 L CNN
F 2 "Fuse:Fuse_Bourns_MF-RHT200" H 9600 3200 50  0001 L CNN
F 3 "~" H 9550 3400 50  0001 C CNN
	1    9550 3400
	1    0    0    -1  
$EndComp
$Comp
L power:+12V #PWR0121
U 1 1 5FBC4371
P 9550 3250
F 0 "#PWR0121" H 9550 3100 50  0001 C CNN
F 1 "+12V" H 9565 3423 50  0000 C CNN
F 2 "" H 9550 3250 50  0001 C CNN
F 3 "" H 9550 3250 50  0001 C CNN
	1    9550 3250
	1    0    0    -1  
$EndComp
$Comp
L power:GND #PWR0122
U 1 1 5FBC4377
P 9900 3550
F 0 "#PWR0122" H 9900 3300 50  0001 C CNN
F 1 "GND" H 9905 3377 50  0000 C CNN
F 2 "" H 9900 3550 50  0001 C CNN
F 3 "" H 9900 3550 50  0001 C CNN
	1    9900 3550
	1    0    0    -1  
$EndComp
Wire Wire Line
	9650 3550 9750 3550
Connection ~ 9750 3550
Wire Wire Line
	9750 3550 9900 3550
$Comp
L Device:Polyfuse F8
U 1 1 5FBA359F
P 5400 2550
F 0 "F8" H 5200 2600 50  0000 L CNN
F 1 "Polyfuse_2A" H 4850 2500 50  0000 L CNN
F 2 "Fuse:Fuse_Bourns_MF-RHT200" H 5450 2350 50  0001 L CNN
F 3 "~" H 5400 2550 50  0001 C CNN
	1    5400 2550
	-1   0    0    1   
$EndComp
Wire Wire Line
	5300 2400 5400 2400
Wire Wire Line
	5250 2400 5300 2400
Connection ~ 5300 2400
Wire Wire Line
	5300 2350 5300 2400
$Comp
L power:+12V #PWR0101
U 1 1 5FB86FE3
P 5300 2350
F 0 "#PWR0101" H 5300 2200 50  0001 C CNN
F 1 "+12V" H 5315 2523 50  0000 C CNN
F 2 "" H 5300 2350 50  0001 C CNN
F 3 "" H 5300 2350 50  0001 C CNN
	1    5300 2350
	1    0    0    -1  
$EndComp
$EndSCHEMATC
